343 40765
6 8
7 0
0 7
416 125
416 15

1000 19
67890 12345
987654321 123456789
999999999 123456789

999999999999999999 123456789
fd df df
\n
999999999999999999 999999999999999999
A AA
23 23  23
1
123
12345
9999999 999

\r \n
2 1